-r ./base.txt

Werkzeug==1.0.1 # https://github.com/pallets/werkzeug
ipdb==0.13.3  # https://github.com/gotcha/ipdb
Sphinx==3.1.1  # https://github.com/sphinx-doc/sphinx
psycopg2-binary==2.8.5  # https://github.com/psycopg/psycopg2
watchgod==0.6  # https://github.com/samuelcolvin/watchgod

# Testing
# ------------------------------------------------------------------------------
mypy==0.782  # https://github.com/python/mypy
django-stubs==1.5.0  # https://github.com/typeddjango/django-stubs
pytest==5.4.3  # https://github.com/pytest-dev/pytest
pytest-sugar==0.9.3  # https://github.com/Frozenball/pytest-sugar

# Code quality
# ------------------------------------------------------------------------------
flake8==3.8.3  # https://github.com/PyCQA/flake8
flake8-isort==3.0.0  # https://github.com/gforcada/flake8-isort
coverage==5.1  # https://github.com/nedbat/coveragepy
black==19.10b0  # https://github.com/ambv/black
pylint-django==2.0.15  # https://github.com/PyCQA/pylint-django
pre-commit==2.5.1  # https://github.com/pre-commit/pre-commit

# Django
# ------------------------------------------------------------------------------
factory-boy==2.12.0  # https://github.com/FactoryBoy/factory_boy

django-debug-toolbar==2.2  # https://github.com/jazzband/django-debug-toolbar
django-extensions==3.0.1  # https://github.com/django-extensions/django-extensions
django-coverage-plugin==1.8.0  # https://github.com/nedbat/django_coverage_plugin
pytest-django==3.9.0  # https://github.com/pytest-dev/pytest-django
